#,窗口Id,窗口名称,lua文件名称,资源路径,预加载资源数组,层级,缓存类型,依赖窗口,是否弹出窗口
&&,ID,Name,LuaFile,ResPath,Preload,Layer,CacheType,RelyWnd,IsPopup
,1,通用加载窗口,,generic/prefab/loading_wnd,,Loading,Always,0,
,2,通用对话框,,generic/prefab/generic_dialog_wnd,,Dialog,Always,0,TRUE
,3,通用提示框,,generic/prefab/generic_tips_wnd,,Tips,Always,0,
