﻿#,章节,关卡ID,关卡名称,主角英雄,怪物1,怪物2,怪物3,场景背景
&&,Chapter,Id,Name,player1,monster1,monster2,monster3,SceneBG
,1,1,关卡1,1,13,11,10,UI/Textures/FightSceneBG/forest2
,1,2,关卡2,1,9,12,,UI/Textures/FightSceneBG/darkcastle2
,1,3,关卡3,1,2,8,9,UI/Textures/FightSceneBG/ill_forest2
,1,4,关卡3,1,2,2,2,UI/Textures/FightSceneBG/cemetery2
,1,5,关卡3,1,2,2,2,UI/Textures/FightSceneBG/pirate_cave2
,1,6,关卡3,1,2,2,2,UI/Textures/FightSceneBG/shipwreck_bay2
,1,7,关卡3,1,2,2,2,UI/Textures/FightSceneBG/forest2
,1,8,关卡3,1,2,2,2,UI/Textures/FightSceneBG/forest2
,1,9,关卡3,1,2,2,2,UI/Textures/FightSceneBG/forest2
,1,10,关卡3,1,2,2,2,UI/Textures/FightSceneBG/forest2
,1,11,关卡3,1,2,2,2,UI/Textures/FightSceneBG/forest2
,1,12,关卡3,1,2,2,2,UI/Textures/FightSceneBG/forest2
,1,13,关卡3,1,2,2,2,UI/Textures/FightSceneBG/forest2
,1,14,关卡3,1,2,2,2,UI/Textures/FightSceneBG/forest2
,1,15,关卡3,1,2,2,2,UI/Textures/FightSceneBG/forest2
,1,16,关卡3,1,2,2,2,UI/Textures/FightSceneBG/forest2
,1,17,关卡3,1,2,2,2,UI/Textures/FightSceneBG/forest2
,1,18,关卡3,1,2,2,2,UI/Textures/FightSceneBG/forest2
,1,19,关卡3,1,2,2,2,UI/Textures/FightSceneBG/forest2
,1,20,关卡3,1,2,2,2,UI/Textures/FightSceneBG/forest2
,1,21,关卡3,1,2,2,2,UI/Textures/FightSceneBG/forest2
,1,22,关卡3,1,2,2,2,UI/Textures/FightSceneBG/forest2
,1,23,关卡3,1,2,2,2,UI/Textures/FightSceneBG/forest2
,1,24,关卡3,1,2,2,2,UI/Textures/FightSceneBG/forest2
,1,25,关卡3,1,2,2,2,UI/Textures/FightSceneBG/forest2
,1,26,关卡3,1,2,2,2,UI/Textures/FightSceneBG/forest2
,1,27,关卡3,1,2,2,2,UI/Textures/FightSceneBG/forest2
,1,28,关卡3,1,2,2,2,UI/Textures/FightSceneBG/forest2
,1,29,关卡3,1,2,2,2,UI/Textures/FightSceneBG/forest2
,1,30,关卡3,1,2,2,2,UI/Textures/FightSceneBG/forest2
,1,31,关卡3,1,2,2,2,UI/Textures/FightSceneBG/forest2
,1,32,关卡3,1,2,2,2,UI/Textures/FightSceneBG/forest2