﻿#,技能id,技能名称,技能描述,技能类型,攻击动作,阻塞事件点,攻击特效,打击特效,攻击音效,受击特效,受击音效,属性类型,影响属性的方式
&&,Id,Name,Desc,Type,AttackAction,BlockPoint,AttackEffect,HitEffect,HitAudio,DefendEffect,DefendAudio,Factor.Constraint,Factor.Command
,9999,通用,通用加buff动作,,buff,500,,,,,,,
,1000,攻击,造成6点伤害,1,attack,500,,,,,,,
,1005,防御,增加自身5点护甲,,damage1,500,,,,,,,
,1015,斩杀1,造成30点伤害，如果敌人血量少于30%则造成60点伤害==30血,1,attack_3,500,,,,,,,
,1016,斩杀2,造成30点伤害，如果敌人血量少于30%则造成60点伤害==60血,1,attack_3,500,1001,,,1001,,,
,2000,攻击,攻击,1,attack,500,,,,,,,
,2005,攻击,攻击,1,attack,500,,,,,,,
,2010,攻击,攻击,1,attack,500,,,,,,,
,2015,攻击,攻击,1,attack,500,,,,,,,
,2020,攻击,攻击,1,attack,500,,,,,,,
,2025,攻击,攻击,1,attack,500,,,,,,,
,2030,buff,buff,1,buff,500,,,,,,,
,2031,攻击,攻击,1,attack,500,,,,,,,
,2035,攻击,攻击,1,attack,500,,,,,,,
,2040,攻击,攻击,1,attack,500,,,,,,,
,2045,buff,buff,1,buff,500,,,,,,,
,2050,buff,buff,1,buff,500,,,,,,,
,2055,攻击,攻击,1,attack,500,,,,,,,
,2060,buff,buff,1,buff,500,,,,,,,
,10000,攻击,造成6点伤害,1,attack,2000,,,,,,,
,10001,回合略过,回合被强制略过,4,damage1,1500,,,,,,,